<svg xmlns="http://www.w3.org/2000/svg" width="19.534" height="20.722" viewBox="0 0 19.534 20.722">
  <g id="Iconly_Light_Setting" data-name="Iconly/Light/Setting" transform="translate(0.879 0.75)">
    <g id="Setting" transform="translate(-0.779 -0.778)">
      <path id="Path_33946" d="M17.528,5.346l-.622-1.08a1.913,1.913,0,0,0-2.609-.7h0a1.9,1.9,0,0,1-2.609-.677,1.831,1.831,0,0,1-.256-.915h0A1.913,1.913,0,0,0,9.519,0H8.265a1.9,1.9,0,0,0-1.9,1.913h0A1.913,1.913,0,0,1,4.448,3.8a1.831,1.831,0,0,1-.915-.256h0a1.913,1.913,0,0,0-2.609.7l-.668,1.1a1.913,1.913,0,0,0,.7,2.609h0a1.913,1.913,0,0,1,.957,1.657,1.913,1.913,0,0,1-.957,1.657h0a1.9,1.9,0,0,0-.7,2.6h0l.632,1.089A1.913,1.913,0,0,0,3.5,15.7h0a1.895,1.895,0,0,1,2.6.7,1.831,1.831,0,0,1,.256.915h0a1.913,1.913,0,0,0,1.913,1.913H9.519a1.913,1.913,0,0,0,1.913-1.9h0a1.9,1.9,0,0,1,1.913-1.913,1.95,1.95,0,0,1,.915.256h0a1.913,1.913,0,0,0,2.609-.7h0l.659-1.1a1.9,1.9,0,0,0-.7-2.609h0a1.9,1.9,0,0,1-.7-2.609,1.876,1.876,0,0,1,.7-.7h0a1.913,1.913,0,0,0,.7-2.6h0Z" transform="translate(0.779 0.778)" fill="none" stroke="#d9dfe2" stroke-linecap="round" stroke-linejoin="round" stroke-width="1.5"/>
      <circle id="Ellipse_737" cx="2.636" cy="2.636" r="2.636" transform="translate(7.039 7.753)" fill="none" stroke="#d9dfe2" stroke-linecap="round" stroke-linejoin="round" stroke-width="1.5"/>
    </g>
  </g>
</svg>
