<svg xmlns="http://www.w3.org/2000/svg" width="48" height="48" viewBox="0 0 48 48">
  <g id="Group_3688" data-name="Group 3688" transform="translate(-822 -225)">
    <circle id="Ellipse_30" data-name="Ellipse 30" cx="24" cy="24" r="24" transform="translate(822 225)" fill="#eaf5f9"/>
    <g id="Iconly_Light_2_User" data-name="Iconly/Light/2 User" transform="translate(836.76 240.221)">
      <g id="_2_User" data-name="2 User" transform="translate(-0.749 -0.75)">
        <path id="Stroke_1" data-name="Stroke 1" d="M6.842,0c3.689,0,6.842.559,6.842,2.792S10.552,5.6,6.842,5.6C3.152,5.6,0,5.046,0,2.812S3.131,0,6.842,0Z" transform="translate(0.749 12.707)" fill="none" stroke="#0094c6" stroke-linecap="round" stroke-linejoin="round" stroke-width="1.5"/>
        <path id="Stroke_3" data-name="Stroke 3" d="M4.386,8.77a4.37,4.37,0,1,1,.031,0Z" transform="translate(3.205 0.75)" fill="none" stroke="#0094c6" stroke-linecap="round" stroke-linejoin="round" stroke-width="1.5"/>
        <path id="Stroke_5" data-name="Stroke 5" d="M0,6.518A3.3,3.3,0,0,0,2.837,3.256,3.3,3.3,0,0,0,.075,0" transform="translate(14.483 1.864)" fill="none" stroke="#0094c6" stroke-linecap="round" stroke-linejoin="round" stroke-width="1.5"/>
        <path id="Stroke_7" data-name="Stroke 7" d="M0,0C1.551.231,2.634.775,2.634,1.895c0,.771-.51,1.271-1.334,1.584" transform="translate(16.595 12.232)" fill="none" stroke="#0094c6" stroke-linecap="round" stroke-linejoin="round" stroke-width="1.5"/>
      </g>
    </g>
  </g>
</svg>
